<svg width="42" height="42" viewBox="0 0 42 42" fill="none" xmlns="http://www.w3.org/2000/svg">
<path fill-rule="evenodd" clip-rule="evenodd" d="M3.55266 4.82598C3.78707 3.88834 4.73721 3.31825 5.67485 3.55266L10.0237 4.63988C12.1118 5.1619 13.643 6.89372 13.9457 8.97493L35.4947 12.0534C37.2189 12.2997 38.4997 13.7764 38.4997 15.5182V21.0004C38.4997 22.9334 36.9327 24.5004 34.9997 24.5004H15.3372C16.2985 25.5745 17.6955 26.2504 19.2504 26.2504H36.7504C37.7169 26.2504 38.5004 27.0339 38.5004 28.0004C38.5004 28.9669 37.7169 29.7504 36.7504 29.7504H35.4132C36.2445 30.6792 36.75 31.9058 36.75 33.2504C36.75 36.1499 34.3995 38.5004 31.5 38.5004C28.6005 38.5004 26.25 36.1499 26.25 33.2504C26.25 31.9058 26.7555 30.6792 27.5868 29.7504H19.6632C20.4945 30.6792 21 31.9058 21 33.2504C21 36.1499 18.6495 38.5004 15.75 38.5004C12.8505 38.5004 10.5 36.1499 10.5 33.2504C10.5 30.8588 12.0992 28.8407 14.2865 28.2071C11.9993 26.6287 10.5004 23.9896 10.5004 21.0004V19.9457C11.5685 20.6064 12.8048 20.9973 13.9859 21.0004H34.9997V15.5182L14.0004 12.5183V18.3754C13.1787 18.3754 12.1567 18.0057 11.3417 17.3246C10.9971 17.0366 10.7128 16.7138 10.5004 16.3666V9.73313C10.5004 8.93011 9.95389 8.23014 9.17485 8.03538L4.82598 6.94816C3.88834 6.71375 3.31825 5.76362 3.55266 4.82598ZM33.25 33.2504C33.25 34.2169 32.4665 35.0004 31.5 35.0004C30.5335 35.0004 29.75 34.2169 29.75 33.2504C29.75 32.2839 30.5335 31.5004 31.5 31.5004C32.4665 31.5004 33.25 32.2839 33.25 33.2504ZM15.75 35.0004C16.7165 35.0004 17.5 34.2169 17.5 33.2504C17.5 32.2839 16.7165 31.5004 15.75 31.5004C14.7835 31.5004 14 32.2839 14 33.2504C14 34.2169 14.7835 35.0004 15.75 35.0004Z" fill="white"/>
</svg>
