<svg width="24" height="24" viewBox="0 0 24 24" fill="none" xmlns="http://www.w3.org/2000/svg">
<g clip-path="url(#clip0_4606_3437)">
<rect x="3" y="3" width="25.2" height="18" rx="2" fill="white"/>
<mask id="mask0_4606_3437" style="mask-type:luminance" maskUnits="userSpaceOnUse" x="3" y="3" width="26" height="18">
<rect x="3" y="3" width="25.2" height="18" rx="2" fill="white"/>
</mask>
<g mask="url(#mask0_4606_3437)">
<path fill-rule="evenodd" clip-rule="evenodd" d="M28.2 3H3V4.2H28.2V3ZM28.2 5.4H3V6.6H28.2V5.4ZM3 7.8H28.2V9H3V7.8ZM28.2 10.2H3V11.4H28.2V10.2ZM3 12.6H28.2V13.8H3V12.6ZM28.2 15H3V16.2H28.2V15ZM3 17.4H28.2V18.6H3V17.4ZM28.2 19.8H3V21H28.2V19.8Z" fill="#D02F44"/>
<rect x="3" y="3" width="10.8" height="8.4" fill="#46467F"/>
<g filter="url(#filter0_d_4606_3437)">
<path fill-rule="evenodd" clip-rule="evenodd" d="M5.39995 4.79995C5.39995 5.13132 5.13132 5.39995 4.79995 5.39995C4.46858 5.39995 4.19995 5.13132 4.19995 4.79995C4.19995 4.46858 4.46858 4.19995 4.79995 4.19995C5.13132 4.19995 5.39995 4.46858 5.39995 4.79995ZM7.79993 4.79995C7.79993 5.13132 7.5313 5.39995 7.19993 5.39995C6.86856 5.39995 6.59993 5.13132 6.59993 4.79995C6.59993 4.46858 6.86856 4.19995 7.19993 4.19995C7.5313 4.19995 7.79993 4.46858 7.79993 4.79995ZM9.59998 5.39995C9.93135 5.39995 10.2 5.13132 10.2 4.79995C10.2 4.46858 9.93135 4.19995 9.59998 4.19995C9.2686 4.19995 8.99998 4.46858 8.99998 4.79995C8.99998 5.13132 9.2686 5.39995 9.59998 5.39995ZM12.6 4.79995C12.6 5.13132 12.3313 5.39995 12 5.39995C11.6686 5.39995 11.4 5.13132 11.4 4.79995C11.4 4.46858 11.6686 4.19995 12 4.19995C12.3313 4.19995 12.6 4.46858 12.6 4.79995ZM5.99998 6.59995C6.33135 6.59995 6.59998 6.33132 6.59998 5.99995C6.59998 5.66858 6.33135 5.39995 5.99998 5.39995C5.6686 5.39995 5.39998 5.66858 5.39998 5.99995C5.39998 6.33132 5.6686 6.59995 5.99998 6.59995ZM8.99995 5.99995C8.99995 6.33132 8.73132 6.59995 8.39995 6.59995C8.06858 6.59995 7.79995 6.33132 7.79995 5.99995C7.79995 5.66858 8.06858 5.39995 8.39995 5.39995C8.73132 5.39995 8.99995 5.66858 8.99995 5.99995ZM10.7999 6.59995C11.1313 6.59995 11.3999 6.33132 11.3999 5.99995C11.3999 5.66858 11.1313 5.39995 10.7999 5.39995C10.4686 5.39995 10.1999 5.66858 10.1999 5.99995C10.1999 6.33132 10.4686 6.59995 10.7999 6.59995ZM12.6 7.19995C12.6 7.53132 12.3313 7.79995 12 7.79995C11.6686 7.79995 11.4 7.53132 11.4 7.19995C11.4 6.86858 11.6686 6.59995 12 6.59995C12.3313 6.59995 12.6 6.86858 12.6 7.19995ZM9.59998 7.79995C9.93135 7.79995 10.2 7.53132 10.2 7.19995C10.2 6.86858 9.93135 6.59995 9.59998 6.59995C9.2686 6.59995 8.99998 6.86858 8.99998 7.19995C8.99998 7.53132 9.2686 7.79995 9.59998 7.79995ZM7.79993 7.19995C7.79993 7.53132 7.5313 7.79995 7.19993 7.79995C6.86856 7.79995 6.59993 7.53132 6.59993 7.19995C6.59993 6.86858 6.86856 6.59995 7.19993 6.59995C7.5313 6.59995 7.79993 6.86858 7.79993 7.19995ZM4.79995 7.79995C5.13132 7.79995 5.39995 7.53132 5.39995 7.19995C5.39995 6.86858 5.13132 6.59995 4.79995 6.59995C4.46858 6.59995 4.19995 6.86858 4.19995 7.19995C4.19995 7.53132 4.46858 7.79995 4.79995 7.79995ZM6.59998 8.39995C6.59998 8.73132 6.33135 8.99995 5.99998 8.99995C5.6686 8.99995 5.39998 8.73132 5.39998 8.39995C5.39998 8.06858 5.6686 7.79995 5.99998 7.79995C6.33135 7.79995 6.59998 8.06858 6.59998 8.39995ZM8.39995 8.99995C8.73132 8.99995 8.99995 8.73132 8.99995 8.39995C8.99995 8.06858 8.73132 7.79995 8.39995 7.79995C8.06858 7.79995 7.79995 8.06858 7.79995 8.39995C7.79995 8.73132 8.06858 8.99995 8.39995 8.99995ZM11.3999 8.39995C11.3999 8.73132 11.1313 8.99995 10.7999 8.99995C10.4686 8.99995 10.1999 8.73132 10.1999 8.39995C10.1999 8.06858 10.4686 7.79995 10.7999 7.79995C11.1313 7.79995 11.3999 8.06858 11.3999 8.39995ZM12 10.2C12.3313 10.2 12.6 9.93132 12.6 9.59995C12.6 9.26858 12.3313 8.99995 12 8.99995C11.6686 8.99995 11.4 9.26858 11.4 9.59995C11.4 9.93132 11.6686 10.2 12 10.2ZM10.2 9.59995C10.2 9.93132 9.93135 10.2 9.59998 10.2C9.2686 10.2 8.99998 9.93132 8.99998 9.59995C8.99998 9.26858 9.2686 8.99995 9.59998 8.99995C9.93135 8.99995 10.2 9.26858 10.2 9.59995ZM7.19993 10.2C7.5313 10.2 7.79993 9.93132 7.79993 9.59995C7.79993 9.26858 7.5313 8.99995 7.19993 8.99995C6.86856 8.99995 6.59993 9.26858 6.59993 9.59995C6.59993 9.93132 6.86856 10.2 7.19993 10.2ZM5.39995 9.59995C5.39995 9.93132 5.13132 10.2 4.79995 10.2C4.46858 10.2 4.19995 9.93132 4.19995 9.59995C4.19995 9.26858 4.46858 8.99995 4.79995 8.99995C5.13132 8.99995 5.39995 9.26858 5.39995 9.59995Z" fill="url(#paint0_linear_4606_3437)"/>
</g>
</g>
</g>
<path fill-rule="evenodd" clip-rule="evenodd" d="M12 21C16.9706 21 21 16.9706 21 12C21 7.02944 16.9706 3 12 3C7.02944 3 3 7.02944 3 12C3 16.9706 7.02944 21 12 21ZM12 22C17.5228 22 22 17.5228 22 12C22 6.47715 17.5228 2 12 2C6.47715 2 2 6.47715 2 12C2 17.5228 6.47715 22 12 22Z" fill="#EAEEF1"/>
<defs>
<filter id="filter0_d_4606_3437" x="4.19995" y="4.19995" width="8.3999" height="7" filterUnits="userSpaceOnUse" color-interpolation-filters="sRGB">
<feFlood flood-opacity="0" result="BackgroundImageFix"/>
<feColorMatrix in="SourceAlpha" type="matrix" values="0 0 0 0 0 0 0 0 0 0 0 0 0 0 0 0 0 0 127 0" result="hardAlpha"/>
<feOffset dy="1"/>
<feColorMatrix type="matrix" values="0 0 0 0 0 0 0 0 0 0 0 0 0 0 0 0 0 0 0.06 0"/>
<feBlend mode="normal" in2="BackgroundImageFix" result="effect1_dropShadow_4606_3437"/>
<feBlend mode="normal" in="SourceGraphic" in2="effect1_dropShadow_4606_3437" result="shape"/>
</filter>
<linearGradient id="paint0_linear_4606_3437" x1="4.19995" y1="4.19995" x2="4.19995" y2="10.2" gradientUnits="userSpaceOnUse">
<stop stop-color="white"/>
<stop offset="1" stop-color="#F0F0F0"/>
</linearGradient>
<clipPath id="clip0_4606_3437">
<rect x="3" y="3" width="18" height="18" rx="9" fill="white"/>
</clipPath>
</defs>
</svg>
